…
    ## Rows: 1377 Columns: 5
    ## ── Column specification ────────────────────────────────────────────────────────
    ## Delimiter: ","
    ## chr (3): weekday, month, text
    ## dbl (2): date, year
    ## 
    ## ℹ Use `spec()` to retrieve the full column specification for this data.
    ## ℹ Specify the column types or set `show_col_types = FALSE` to quiet this message.

``` r
tweets_data
```

    ## # A tibble: 1,377 × 5
    ##    weekday month  date  year text                                               
    ##    <chr>   <chr> <dbl> <dbl> <chr>                                              
    ##  1 Thu     Oct       1  2015 @mjdout I know that can be frustrating..we hope to…
    ##  2 Thu     Oct       1  2015 @rmarkerm Terribly sorry for the inconvenience. If…
    ##  3 Thu     Oct       1  2015 @checho85  I can check, pls follow and DM your con…
    ##  4 Thu     Oct       1  2015 @nealaa ...Alerts, pls check here: http://t.co/0jl…
    ##  5 Thu     Oct       1  2015 @nealaa ...advisory has only been issued for the B…
    ##  6 Thu     Oct       1  2015 @nealaa Hi. Our meteorologist team is aware of Hur…
    ##  7 Thu     Oct       1  2015 @BigGucciQueen  This is your direct dial number + …
    ##  8 Thu     Oct       1  2015 @marxypoo ...for any inconvenience.  *JH 3/3       
    ##  9 Thu     Oct       1  2015 @marxypoo ...the system &amp; when you are ready t…
    ## 10 Thu     Oct       1  2015 @marxypoo Hi Marx. This is a known issue &amp; our…
    ## # ℹ 1,367 more rows

``` r
tweets_data <- tweets_data %>%
  select(weekday, month, date, year, text) %>%
  mutate(tweets_length = str_count(tweets_data$text))
tweets_data
```

    ## # A tibble: 1,377 × 6
    ##    weekday month  date  year text                                  tweets_length
    ##    <chr>   <chr> <dbl> <dbl> <chr>                                         <int>
    ##  1 Thu     Oct       1  2015 @mjdout I know that can be frustrati…           119
    ##  2 Thu     Oct       1  2015 @rmarkerm Terribly sorry for the inc…           110
    ##  3 Thu     Oct       1  2015 @checho85  I can check, pls follow a…            78
    ##  4 Thu     Oct       1  2015 @nealaa ...Alerts, pls check here: h…            65
    ##  5 Thu     Oct       1  2015 @nealaa ...advisory has only been is…           137
    ##  6 Thu     Oct       1  2015 @nealaa Hi. Our meteorologist team i…           142
    ##  7 Thu     Oct       1  2015 @BigGucciQueen  This is your direct …            75
    ##  8 Thu     Oct       1  2015 @marxypoo ...for any inconvenience. …            44
    ##  9 Thu     Oct       1  2015 @marxypoo ...the system &amp; when y…           140
    ## 10 Thu     Oct       1  2015 @marxypoo Hi Marx. This is a known i…           141
    ## # ℹ 1,367 more rows
…
``` r
# What percentage of short tweets (tweets less than 50 characters in length) are there in the dataset? Use nchar to answer this question. 
sum(nchar(tweets_data$text) < 50)/nrow(tweets_data) * 100
```

    ## [1] 13.21714

``` r
# Create a new dataset tweets_data_subset without short tweets. Use subset() function from base R installation. 
tweets_data2 <- subset(tweets_data, nchar(as.character(text)) >= 50)
tweets_data2
```

    ## # A tibble: 1,195 × 6
    ##    weekday month  date  year text                                  tweets_length
    ##    <chr>   <chr> <dbl> <dbl> <chr>                                         <int>
    ##  1 Thu     Oct       1  2015 @mjdout I know that can be frustrati…           119
    ##  2 Thu     Oct       1  2015 @rmarkerm Terribly sorry for the inc…           110
    ##  3 Thu     Oct       1  2015 @checho85  I can check, pls follow a…            78
    ##  4 Thu     Oct       1  2015 @nealaa ...Alerts, pls check here: h…            65
    ##  5 Thu     Oct       1  2015 @nealaa ...advisory has only been is…           137
    ##  6 Thu     Oct       1  2015 @nealaa Hi. Our meteorologist team i…           142
    ##  7 Thu     Oct       1  2015 @BigGucciQueen  This is your direct …            75
    ##  8 Thu     Oct       1  2015 @marxypoo ...the system &amp; when y…           140
    ##  9 Thu     Oct       1  2015 @marxypoo Hi Marx. This is a known i…           141
    ## 10 Thu     Oct       1  2015 @BigGucciQueen  What country are you…            54
    ## # ℹ 1,185 more rows
…
``` r
patterns <-c('Jan','Feb','Mar','Apr','May','Jun','Jul','Aug','Sep','Oct','Nov','Dec')
replacements <-seq(1:12)
tweets_data$month_numeric <- mgsub(patterns,replacements,tweets_data$month)

patterns_weekday <- c('Mon', 'Tue', 'Wed', 'Thu', 'Fri', 'Sat', 'Sun')
replacements_weekday <- seq(1:7)
tweets_data$weekday_numeric <- mgsub(patterns_weekday,replacements_weekday,tweets_data$weekday)

tweets_data$response_date <- str_c(tweets_data$month_numeric, tweets_data$date, tweets_data$year, sep = "/")
tweets_data$response_date <- as.Date(tweets_data$response_date, format = "%m/%d/%Y")
tweets_data
```

    ## # A tibble: 1,377 × 9
    ##    weekday month  date  year text    tweets_length month_numeric weekday_numeric
    ##    <chr>   <chr> <dbl> <dbl> <chr>           <int> <chr>         <chr>          
    ##  1 Thu     Oct       1  2015 @mjdou…           119 10            4              
    ##  2 Thu     Oct       1  2015 @rmark…           110 10            4              
    ##  3 Thu     Oct       1  2015 @chech…            78 10            4              
    ##  4 Thu     Oct       1  2015 @neala…            65 10            4              
    ##  5 Thu     Oct       1  2015 @neala…           137 10            4              
    ##  6 Thu     Oct       1  2015 @neala…           142 10            4              
    ##  7 Thu     Oct       1  2015 @biggu…            75 10            4              
    ##  8 Thu     Oct       1  2015 @marxy…            44 10            4              
    ##  9 Thu     Oct       1  2015 @marxy…           140 10            4              
    ## 10 Thu     Oct       1  2015 @marxy…           141 10            4              
    ## # ℹ 1,367 more rows
    ## # ℹ 1 more variable: response_date <date>
…
    ## `summarise()` has grouped output by 'response_date'. You can override using the
    ## `.groups` argument.

``` r
response_counts
```

    ## # A tibble: 195 × 3
    ## # Groups:   response_date [15]
    ##    response_date agent responses
    ##    <date>        <chr>     <int>
    ##  1 2015-10-01    aa            4
    ##  2 2015-10-01    ab            9
    ##  3 2015-10-01    dd            5
    ##  4 2015-10-01    jh            1
    ##  5 2015-10-01    kc            8
    ##  6 2015-10-01    km            5
    ##  7 2015-10-01    mr            2
    ##  8 2015-10-01    ng            9
    ##  9 2015-10-01    rb            5
    ## 10 2015-10-01    rd            3
    ## # ℹ 185 more rows
…
``` r
mean(response_counts$responses)
```

    ## [1] 5.225641

``` r
#Calculate the average number of responses per day per employee
avg_responses <- response_counts %>%
  group_by(agent) %>%
  summarise(average_per_day = mean(responses))
avg_responses
```

    ## # A tibble: 33 × 2
    ##    agent average_per_day
    ##    <chr>           <dbl>
    ##  1 aa               7.75
    ##  2 ab               7   
    ##  3 ad               3.67
    ##  4 an               4   
    ##  5 bb               3   
    ##  6 ck               1.75
    ##  7 cm               6   
    ##  8 cs               1   
    ##  9 dd               6.11
    ## 10 dr               2.33
    ## # ℹ 23 more rows
…
