…
    ## Warning: package 'widyr' was built under R version 4.2.3

    ## Warning: package 'ggraph' was built under R version 4.2.3

``` r
# Check the dataset and replace NA by spaces 

library(readxl)
sentences <- readxl::read_xlsx(str_c(getwd(),"/Input/BlutoothSpeaker_B09JB8KPNW.xlsx"))
sentences
```

    ## # A tibble: 977 × 1
    ##    review_text                                                                  
    ##    <chr>                                                                        
    ##  1 "Update 2: On day 16, the Left earbud stopped playing as loud as the right. …
    ##  2 "I bought these to help filter out noise at the office generally for music l…
    ##  3 "By no means am I an expert on earbuds or sound. But I'll give my input anyw…
    ##  4 "I actually like these headphones. The lost star is for the fact that they d…
    ##  5 "These ear buds are very clear.\n1. When I'm using it, I can hear the other …
    ##  6 "Excellent sound quality, very good noise cancelling, very good battery life…
    ##  7 "I have been a long time JBL customer. I find their products decently priced…
    ##  8 "I love the sound quality. The bass is great but you must have the right siz…
    ##  9 "I have several pairs of earbuds and these probably have the best sound. Dee…
    ## 10 "I'm a very picky \"audiophile\" and was looking for a TWS set to use out an…
    ## # ℹ 967 more rows
…
    ## Joining with `by = join_by(word)`

``` r
sentences_without_stopwords %>%
  unnest_tokens(word, review_text) %>%
  # group_by(word) %>%
  # summarise(frequency = n())
  # ungroup
  count(word)
```

    ## # A tibble: 3,664 × 2
    ##    word                n
    ##    <chr>           <int>
    ##  1 ability             7
    ##  2 abriendo            1
    ##  3 abril               2
    ##  4 absolute            1
    ##  5 absolutely         21
    ##  6 acceptable          4
    ##  7 accepted            1
    ##  8 access              3
    ##  9 accessed            1
    ## 10 accessoriesdont     1
    ## # ℹ 3,654 more rows
…
